{
  "defaultSeverity": "error",
  "extends": [
    "tslint:recommended"
  ],
  "jsRules": {},
  "rules": {
    "trailing-comma": [ false ],
    "no-var-requires": false,
    "no-console": false
  },
  "rulesDirectory": []
}
